; Engine configuration file.
; It's best edited using the editor UI and not directly,
; since the parameters that go here are not all obvious.
;
; Format:
;   [section] ; section goes between []
;   param=value ; assign values to parameters

config_version=4

_global_script_classes=[  ]
_global_script_class_icons={

}

[application]

config/name="BH_test"
run/main_scene="res://main3.tscn"
config/icon="res://icon.png"

[display]

window/size/test_width=1334
window/size/test_height=610
window/stretch/mode="2d"
window/stretch/aspect="expand"

[rendering]

environment/default_environment="res://default_env.tres"
